﻿<?xml version="1.0" encoding="UTF-8"?>
<TestRun id="448d7ec9-bb06-4ca5-a617-b8d9c2af170e" name="Administrator@TABLET 2011-08-13 14:15:13" runUser="TABLET\Administrator" xmlns="http://microsoft.com/schemas/VisualStudio/TeamTest/2010">
  <TestSettings name="Local" id="035e117a-b00b-4ebe-ad75-231a7f690d31">
    <Description>These are default test settings for a local test run.</Description>
    <Deployment enabled="false" runDeploymentRoot="Administrator_TABLET 2011-08-13 14_15_13" />
    <Execution>
      <TestTypeSpecific />
      <AgentRule name="Execution Agents">
      </AgentRule>
    </Execution>
  </TestSettings>
  <Times creation="2011-08-13T14:15:13.3544000-05:00" queuing="2011-08-13T14:15:14.5160704-05:00" start="2011-08-13T14:15:15.8880432-05:00" finish="2011-08-13T14:15:16.9395552-05:00" />
  <ResultSummary outcome="Completed">
    <Counters total="1" executed="1" passed="1" error="0" failed="0" timeout="0" aborted="0" inconclusive="0" passedButRunAborted="0" notRunnable="0" notExecuted="0" disconnected="0" warning="0" completed="0" inProgress="0" pending="0" />
  </ResultSummary>
  <TestDefinitions>
    <UnitTest name="TestMethod1" storage="c:\documents and settings\administrator\my documents\visual studio 2010\projects\coop\dropbox\coop.dropbox.tests\bin\debug\coop.dropbox.tests.dll" id="e46ec3eb-4574-7125-3e90-2ad155df6ffe">
      <Execution timeOut="1800000" id="95153766-cba2-4151-b897-3cf2dd98b973" />
      <TestMethod codeBase="C:/Documents and Settings/Administrator/My Documents/Visual Studio 2010/Projects/CoOp/DropBox/Coop.DropBox.Tests/bin/Debug/Coop.DropBox.Tests.DLL" adapterTypeName="Microsoft.VisualStudio.TestTools.TestTypes.Unit.UnitTestAdapter, Microsoft.VisualStudio.QualityTools.Tips.UnitTest.Adapter, Version=10.0.0.0, Culture=neutral, PublicKeyToken=b03f5f7f11d50a3a" className="Coop.DropBox.Tests.UnitTest1, Coop.DropBox.Tests, Version=1.0.0.0, Culture=neutral, PublicKeyToken=null" name="TestMethod1" />
    </UnitTest>
  </TestDefinitions>
  <TestLists>
    <TestList name="Results Not in a List" id="8c84fa94-04c1-424b-9868-57a2d4851a1d" />
    <TestList name="All Loaded Results" id="19431567-8539-422a-85d7-44ee4e166bda" />
  </TestLists>
  <TestEntries>
    <TestEntry testId="e46ec3eb-4574-7125-3e90-2ad155df6ffe" executionId="95153766-cba2-4151-b897-3cf2dd98b973" testListId="8c84fa94-04c1-424b-9868-57a2d4851a1d" />
  </TestEntries>
  <Results>
    <UnitTestResult executionId="95153766-cba2-4151-b897-3cf2dd98b973" testId="e46ec3eb-4574-7125-3e90-2ad155df6ffe" testName="TestMethod1" computerName="TABLET" duration="00:00:00.0334028" startTime="2011-08-13T14:15:16.2685904-05:00" endTime="2011-08-13T14:15:16.5289648-05:00" testType="13cdc9d9-ddb5-4fa4-a97d-d965ccfc6d4b" outcome="Passed" testListId="8c84fa94-04c1-424b-9868-57a2d4851a1d" relativeResultsDirectory="95153766-cba2-4151-b897-3cf2dd98b973">
    </UnitTestResult>
  </Results>
</TestRun>